{"body":{"tracks":{"href":"https://api.spotify.com/v1/search?query=genre%3Arock&type=track&offset=0&limit=1","items":[{"album":{"album_type":"album","artists":[{"external_urls":{"spotify":"https://open.spotify.com/artist/0PFtn5NtBbbUNbU9EAmIWF"},"href":"https://api.spotify.com/v1/artists/0PFtn5NtBbbUNbU9EAmIWF","id":"0PFtn5NtBbbUNbU9EAmIWF","name":"Toto","type":"artist","uri":"spotify:artist:0PFtn5NtBbbUNbU9EAmIWF"}],"available_markets":["AD","AR","AT","AU","BE","BG","BO","BR","CA","CH","CL","CO","CR","CY","CZ","DE","DK","DO","EC","EE","ES","FI","FR","GB","GR","GT","HK","HN","HU","ID","IE","IL","IS","IT","JP","LI","LT","LU","LV","MC","MT","MX","MY","NI","NL","NO","NZ","PA","PE","PH","PL","PT","PY","RO","SE","SG","SK","SV","TH","TR","TW","US","UY","VN","ZA"],"external_urls":{"spotify":"https://open.spotify.com/album/62U7xIHcID94o20Of5ea4D"},"href":"https://api.spotify.com/v1/albums/62U7xIHcID94o20Of5ea4D","id":"62U7xIHcID94o20Of5ea4D","images":[{"height":640,"url":"https://i.scdn.co/image/fba60f3ffb0d2ffc6ec078f670541d0c897ff85f","width":640},{"height":300,"url":"https://i.scdn.co/image/f934fc64507ef928a246607f5a505f1bac9ea746","width":300},{"height":64,"url":"https://i.scdn.co/image/bdf83708a2d76e11f89844aa85cbd5dbd64ef3c0","width":64}],"name":"Toto IV","release_date":"1982-04-08","release_date_precision":"day","type":"album","uri":"spotify:album:62U7xIHcID94o20Of5ea4D"},"artists":[{"external_urls":{"spotify":"https://open.spotify.com/artist/0PFtn5NtBbbUNbU9EAmIWF"},"href":"https://api.spotify.com/v1/artists/0PFtn5NtBbbUNbU9EAmIWF","id":"0PFtn5NtBbbUNbU9EAmIWF","name":"Toto","type":"artist","uri":"spotify:artist:0PFtn5NtBbbUNbU9EAmIWF"}],"available_markets":["AD","AR","AT","AU","BE","BG","BO","BR","CA","CH","CL","CO","CR","CY","CZ","DE","DK","DO","EC","EE","ES","FI","FR","GB","GR","GT","HK","HN","HU","ID","IE","IL","IS","IT","JP","LI","LT","LU","LV","MC","MT","MX","MY","NI","NL","NO","NZ","PA","PE","PH","PL","PT","PY","RO","SE","SG","SK","SV","TH","TR","TW","US","UY","VN","ZA"],"disc_number":1,"duration_ms":295893,"explicit":false,"external_ids":{"isrc":"USSM19801941"},"external_urls":{"spotify":"https://open.spotify.com/track/2374M0fQpWi3dLnB54qaLX"},"href":"https://api.spotify.com/v1/tracks/2374M0fQpWi3dLnB54qaLX","id":"2374M0fQpWi3dLnB54qaLX","is_local":false,"name":"Africa","popularity":85,"preview_url":"https://p.scdn.co/mp3-preview/dd78dafe31bb98f230372c038a126b8808f9349b?cid=f58828e1e3e044989aef82999ced5027","track_number":10,"type":"track","uri":"spotify:track:2374M0fQpWi3dLnB54qaLX"}],"limit":1,"next":"https://api.spotify.com/v1/search?query=genre%3Arock&type=track&offset=1&limit=1","offset":0,"previous":null,"total":163329}},"headers":{"content-type":"application/json; charset=utf-8","cache-control":"public, max-age=7200","access-control-allow-origin":"*","access-control-allow-headers":"Accept, Authorization, Origin, Content-Type, Retry-After","access-control-allow-methods":"GET, POST, OPTIONS, PUT, DELETE, PATCH","access-control-allow-credentials":"true","access-control-max-age":"604800","content-encoding":"gzip","date":"Sat, 07 Jul 2018 20:08:22 GMT","via":"1.1 google","alt-svc":"clear","connection":"close","transfer-encoding":"chunked"},"statusCode":200}